{
  "project_info": {
    "project_number": "533003667541",
    "firebase_url": "https://power-todo.firebaseio.com",
    "project_id": "power-todo",
    "storage_bucket": "power-todo.appspot.com"
  },
  "client": [
    {
      "client_info": {
        "mobilesdk_app_id": "1:533003667541:android:ee4ab78e58788030772cdc",
        "android_client_info": {
          "package_name": "com.example.todolist_unmodified_dup"
        }
      },
      "oauth_client": [
        {
          "client_id": "533003667541-1f1rsl1fcdqo2e6ifuk1epjn3fjsioha.apps.googleusercontent.com",
          "client_type": 1,
          "android_info": {
            "package_name": "com.example.todolist_unmodified_dup",
            "certificate_hash": "5d28eed063a033d7faf8cf83199a5a42c60f76c1"
          }
        },
        {
          "client_id": "533003667541-atmfvf3rkaovhqu7p5m2nplmnrib6dnv.apps.googleusercontent.com",
          "client_type": 3
        }
      ],
      "api_key": [
        {
          "current_key": "AIzaSyBWhmX83a0-eOdYQmtx9WQ7vCkeW4cGSE4"
        }
      ],
      "services": {
        "appinvite_service": {
          "other_platform_oauth_client": [
            {
              "client_id": "533003667541-atmfvf3rkaovhqu7p5m2nplmnrib6dnv.apps.googleusercontent.com",
              "client_type": 3
            }
          ]
        }
      }
    }
  ],
  "configuration_version": "1"
}